Difficulty 1:
1: 1
2: 2
3: 3
4: 4
5: 5
6: 6
7: 7
8: 8
9: 9
10: 10
Difficulty 2:
1: 2, 3, 4, 5, 6, 7, 8, 9, 10
2: 4, 6, 8, 10
3: 6, 9
4: 8
5: 10
Difficulty 3:
2: 1, 3, 5, 7, 9
4: 2, 6, 10
5: 1, 2, 3, 4, 6, 7, 8, 9
6: 3, 9
8: 4
10: 1, 2, 3, 4, 5, 6, 7, 8, 9
Difficulty 4:
4: 1, 3, 5, 7, 9
8: 2, 6, 10
Difficulty 5:
3: 1, 2, 4, 5, 7, 8, 10
6: 1, 2, 4, 5, 7, 8, 10
7: 1, 2, 3, 4, 5, 6, 8, 9, 10
8: 1, 3, 5, 7, 9
9: 1, 2, 3, 4, 5, 6, 7, 8, 10